{
    "status": "ok",
    "totalResults": 38,
    "articles": [
      {
        "source": {
          "id": null,
          "name": "Detik.com"
        },
        "author": "Arbi Anugrah",
        "title": "Rekonstruksi Pembunuhan 4 Bersaudara di Banyumas Jadi Perhatian Warga",
        "description": "Ratusan warga berdatangan menyaksikan rekonstruksi kasus pembunuhan 4 bersaudara yang kerangkanya baru ditemukan hampir selama 5 tahun dikubur di Banyumas.",
        "url": "https://news.detik.com/berita-jawa-tengah/d-4683894/rekonstruksi-pembunuhan-4-bersaudara-di-banyumas-jadi-perhatian-warga",
        "urlToImage": "https://awsimages.detik.net.id/api/wm/2019/08/28/97934bc2-ce85-42e2-aed5-ed80d7454018_169.jpeg?wid=54&w=650&v=1&t=jpeg",
        "publishedAt": "2019-08-28T04:16:56Z",
        "content": "Banyumas -\r\nRatusan warga berdatangan untuk menyaksikan rekonstruksi kasus pembunuhan 4 bersaudara yang kerangkanya baru ditemukan hampir selama 5 tahun dikubur di Banyumas. Warga penasaran hingga memenuhi sekitar lokasi kejadian.Dari pantauan detikcom di lok… [+1630 chars]"
      },
      {
        "source": {
          "id": null,
          "name": "Detik.com"
        },
        "author": "Arbi Anugrah",
        "title": "Rekonstruksi Pembunuhan 4 Bersaudara jadi Tontonan Warga",
        "description": "Polisi menggelar rekonstruksi pembunuhan 4 bersaudara yang kerangkanya baru ditemukan selama hampir 5 tahun dikubur di Banyumas. Rekonstruksi itu jadi tontonan.",
        "url": "https://news.detik.com/foto-news/d-4684099/rekonstruksi-pembunuhan-4-bersaudara-jadi-tontonan-warga",
        "urlToImage": "https://awsimages.detik.net.id/api/wm/2019/08/28/7a385fc2-a44c-401c-ac21-09d0477caabd_169.jpeg?wid=54&w=650&v=1&t=jpeg",
        "publishedAt": "2019-08-28T06:10:11Z",
        "content": null
      },
      {
        "source": {
          "id": null,
          "name": "Detik.com"
        },
        "author": "Arbi Anugrah",
        "title": "Keluarga Misem di Mata Tetangga: Tertutup dan Sering Bertengkar",
        "description": "Di mata para tetangga, keluarga Misem (76) di Banyumas yang berebut warisan hingga terjadi pembunuhan diketahui sering bertengkar di dalam rumah.",
        "url": "https://news.detik.com/berita-jawa-tengah/d-4684025/keluarga-misem-di-mata-tetangga-tertutup-dan-sering-bertengkar",
        "urlToImage": "https://awsimages.detik.net.id/api/wm/2019/08/28/3a578605-1068-45e8-913a-af4e26365b9f_169.jpeg?wid=54&w=650&v=1&t=jpeg",
        "publishedAt": "2019-08-28T05:33:25Z",
        "content": "Banyumas -\r\nDi mata para tetangga, keluarga Misem (76) di Grumbul Karanggandul, Desa Pasinggangan, Kecamatan Banyumas dikenal tertutup. Keluarga tersebut juga diketahui sering bertengkar di dalam rumah.Kepala Dusun II Desa Pasinggangan, Sujoko, menjelaskan se… [+3091 chars]"
      },
      {
        "source": {
          "id": null,
          "name": "Detik.com"
        },
        "author": "Arbi Anugrah",
        "title": "Akhir Penantian Mbah Misem, 5 Tahun Menunggu Kepulangan 4 Anak Cucu",
        "description": "\"Setiap Lebaran, selalu menyiapkan makanan, seperti ketupat, dalam jumlah yang banyak. Sebab, berharap anak-anak dan cucunya itu pulang,\" kata tetangga Misem.",
        "url": "https://news.detik.com/berita-jawa-tengah/d-4684989/akhir-penantian-mbah-misem-5-tahun-menunggu-kepulangan-4-anak-cucu",
        "urlToImage": "https://awsimages.detik.net.id/api/wm/2019/08/28/eb3d2bf2-06a1-4b25-9ba9-0dab1aa5c827_169.jpeg?wid=54&w=650&v=1&t=jpeg",
        "publishedAt": "2019-08-29T00:42:50Z",
        "content": "Banyumas -\r\n Misem (76) tak pernah menyangka tiga anak dan seorang cucu yang hampir lima tahun hilang ternyata terkubur di belakang rumahnya. Setiap Lebaran, Misem selalu memasak banyak makanan, berharap mereka pulang.Empat orang yang selalu ditunggu-tunggu i… [+2576 chars]"
      },
      {
        "source": {
          "id": null,
          "name": "Detik.com"
        },
        "author": "Imam Suripto",
        "title": "Foto: Tari Ronggeng di Festival Budaya Kaligua Brebes",
        "description": "Kaligua Culture Festival meramaikan Brebes, Jawa Tengah. Dalam rangkaian ini, juga ditampilkan Tari Ronggeng.",
        "url": "https://travel.detik.com/fototravel/d-4644500/foto-tari-ronggeng-di-festival-budaya-kaligua-brebes",
        "urlToImage": "https://awsimages.detik.net.id/api/wm/2019/07/29/3bbff00d-6cd7-4f18-bcde-16617431bcd0_169.jpeg?wid=54&w=650&v=1&t=jpeg",
        "publishedAt": "2019-07-30T00:50:32Z",
        "content": "Kaligua Culture Festival (KCF) digelar di Kebun Teh Kaligua, Desa Pandansari, Kecamatan Paguyangan, Brebes, Jawa Tengah. Wisatawan datang dari Tegal, Banyumas dan Cirebon (Imam Suripto/detikcom)"
      },
      {
        "source": {
          "id": null,
          "name": "Detik.com"
        },
        "author": "Arbi Anugrah",
        "title": "Gunung Slamet Berstatus Waspada, 50 Pendaki Tercatat Naik",
        "description": "Gunung Slamet di Jateng kini statusnya naik jadi Waspada dari Normal. Di Pos Kutabawa, Pubalingga tercata ada 50 pendaki yang naik. Pendakian saat ini ditutup.",
        "url": "https://news.detik.com/berita-jawa-tengah/d-4659092/gunung-slamet-berstatus-waspada-50-pendaki-tercatat-naik",
        "urlToImage": "https://awsimages.detik.net.id/api/wm/2017/12/31/bd57f3cd-f1c3-47a0-b0a8-a807a807cd7a_169.jpg?wid=54&w=650&v=1&t=jpeg",
        "publishedAt": "2019-08-09T07:21:44Z",
        "content": "banyumas -\r\nPusat Vulkanologi dan Mitigasi Bencana Geologi (PVMBG) meningkatkan status Gunung Slamet, Jawa Tengah, dari level I (Normal) menjadi level II (Waspada). Saat status gunung dinaikkan, saat ini tercatat di Pos Pendakian Bambangan, Purbalingga ada 50… [+1070 chars]"
      },
      {
        "source": {
          "id": null,
          "name": "Detik.com"
        },
        "author": "Angling Adhitya Purbaya",
        "title": "BMKG Imbau Warga Jateng Waspada Cuaca Ekstrem Jelang Musim Hujan",
        "description": "BMKG memprediksi musim hujan di Jawa Tengah mundur sekitar 20 hari. BMKG mengimbau masyarakat agar waspada terhadap potensi angin kencang pada masa transisi.",
        "url": "https://news.detik.com/berita-jawa-tengah/d-4684334/bmkg-imbau-warga-jateng-waspada-cuaca-ekstrem-jelang-musim-hujan",
        "urlToImage": "https://awsimages.detik.net.id/api/wm/2019/08/28/7dc06b6a-6810-447b-86b2-42bb4d7f24f5_169.jpeg?wid=54&w=650&v=1&t=jpeg",
        "publishedAt": "2019-08-28T08:51:53Z",
        "content": "Semarang -\r\nBadan Meteorologi Klimatologi dan Geofisika (BMKG) memprediksi musim hujan di Jawa Tengah mundur sekitar 20 hari. BMKG mengimbau masyarakat agar waspada terhadap potensi angin kencang pada masa transisi.Kepala BMKG Stasiun Klimatologi Semarang, Tu… [+2231 chars]"
      },
      {
        "source": {
          "id": null,
          "name": "Detik.com"
        },
        "author": "Odilia Winneke Setiawati",
        "title": "Cara Bikin Tempe Mendoan yang Gurih Enak",
        "description": "Saya dan keluarga penyuka makanan dari tempa/ Salah satunya tempe mendoan. Pernah beberapa kali bikin sendiri tetapi rasanya kok tepung banget dan tidak gurih.",
        "url": "https://food.detik.com/odilia-winneke/d-4657151/cara-bikin-tempe-mendoan-yang-gurih-enak",
        "urlToImage": "https://awsimages.detik.net.id/api/wm/2017/08/08/2d7f33f9-4818-4932-ab0d-33d1cc506e9d_169.jpg?wid=54&w=650&v=1&t=jpeg",
        "publishedAt": "2019-08-08T04:45:00Z",
        "content": "Jakarta - Tanya:Saya dan keluarga penyuka makanan dari tempa/ Salah satunya tempe mendoan. Pernah beberapa kali bikin sendiri tetapi rasanya kok tepung banget dan ngga ada gurih-gurihnya sama sekali. Kira-kira ada ngga rahasia bikin tempe mendoan enak? \r\nChri… [+1480 chars]"
      },
      {
        "source": {
          "id": null,
          "name": "Detik.com"
        },
        "author": "Arbi Anugrah",
        "title": "Dampak Listrik Padam, Perjalanan KA Molor Hingga 3 Jam Lebih",
        "description": "Pemadaman listrik di Jakarta, sebagian Jabar dan Jateng berdampak pada perjalanan kereta api (KA) dari Jakarta. Bahkan ada yang molor hingga 3 jam lebih.",
        "url": "https://news.detik.com/berita-jawa-tengah/d-4652296/dampak-listrik-padam-perjalanan-ka-molor-hingga-3-jam-lebih",
        "urlToImage": "https://awsimages.detik.net.id/api/wm/2017/05/11/0aed01a0-1ee6-49da-a587-695548c664df_169.jpg?wid=54&w=650&v=1&t=jpeg",
        "publishedAt": "2019-08-05T02:20:17Z",
        "content": "Banyumas -\r\nPemadaman listrik PLN di Jakarta, sebagian Jawa Barat dan Jawa Tengah pada Minggu (4/8) kemarin, berdampak pada perjalanan KA dari Jakarta menuju Jateng dan Jatim. KA yang berangkat dari stasiun Gambir dan Pasarsenen mengalami keterlambatan.Manage… [+2581 chars]"
      },
      {
        "source": {
          "id": null,
          "name": "Detik.com"
        },
        "author": "Eko Susanto",
        "title": "Hadapi PSIS, Jacksen F Tiago Dipusingkan Jadwal Maju Mundur",
        "description": "Persipura Jayapura harus menghadapi PSIS Semarang dalam pekan ke-12 Liga 1 2019. Pelatih Jackson F Tiago mengeluhkan jadwal pertandingan yang berubah-ubah.",
        "url": "https://sport.detik.com/sepakbola/liga-indonesia/d-4652994/hadapi-psis-jacksen-f-tiago-dipusingkan-jadwal-maju-mundur",
        "urlToImage": "https://akcdn.detik.net.id/api/wm/2019/08/05/ee5a03c8-c267-4da4-a8d9-e2ca21b76a57_169.jpeg?wid=54&w=650&v=1&t=jpeg",
        "publishedAt": "2019-08-05T08:52:32Z",
        "content": "Magelang - Persipura Jayapura harus menghadapi PSIS Semarang dalam pekan ke-12 Liga 1 2019. Pelatih Mutiara Hitam, Jackson F Tiago, mengeluhkan jadwal pertandingan yang berubah-ubah. Persipura bertandang ke markas PSIS di Stadion Moch Soebroto, Selasa (6/8/20… [+3540 chars]"
      },
      {
        "source": {
          "id": null,
          "name": "Detik.com"
        },
        "author": null,
        "title": "Biar Tahan Lama, Jalan Nasional Dilapisi Aspal Campur Karet",
        "description": "Pemerintah telah memulai penggunaan aspal karet untuk penanganan jalan nasional. Contohnya di ruas Ajibarang-Banyumas-Klampok-Banjarnegara.",
        "url": "https://finance.detik.com/foto-bisnis/d-4679342/biar-tahan-lama-jalan-nasional-dilapisi-aspal-campur-karet/1",
        "urlToImage": null,
        "publishedAt": "2019-08-24T09:45:40Z",
        "content": "Jakarta, detikFinance - Kementerian PUPR menargetkan pada tahun 2019 panjang effektif jalan nasional 65,56 Km menggunakan campuran aspal karet sebanyak 2.542 ton, dimana dengan asumsi penggunaan karet 7% terhadap aspal maka jumlah karet yang terserap sebanyak… [+34 chars]"
      },
      {
        "source": {
          "id": null,
          "name": "Detik.com"
        },
        "author": "Pool",
        "title": "Biar Tahan Lama, Jalan Nasional Dilapisi Aspal Campur Karet",
        "description": "Pemerintah telah memulai penggunaan aspal karet untuk penanganan jalan nasional. Contohnya di ruas Ajibarang-Banyumas-Klampok-Banjarnegara.",
        "url": "https://finance.detik.com/foto-bisnis/d-4679342/biar-tahan-lama-jalan-nasional-dilapisi-aspal-campur-karet",
        "urlToImage": "https://awsimages.detik.net.id/api/wm/2019/08/24/ad0a294d-e060-46e5-a45b-d10512a1ebf6_169.jpeg?wid=54&w=650&v=1&t=jpeg",
        "publishedAt": "2019-08-24T09:45:40Z",
        "content": null
      },
      {
        "source": {
          "id": null,
          "name": "Viva.co.id"
        },
        "author": "Editor Times Indonesia, MFA Rohmatillah, Ferry Agusta Satrio",
        "title": "Persela Seleksi Bekas Pemain Persijap Jepara",
        "description": "Berita Persela Seleksi Bekas Pemain Persijap Jepara terbaru hari ini 2019-08-29 14:06:02 dari sumber yang terpercaya",
        "url": "https://www.viva.co.id/bola/1177078-persela-seleksi-bekas-pemain-persijap-jepara",
        "urlToImage": "https://thumb.viva.co.id/media/frontend/thumbs3/2019/08/29/5d677922876d0-persela-seleksi-bekas-pemain-persijap-jepara_665_374.jpg",
        "publishedAt": "2019-08-29T07:06:02Z",
        "content": "Persela Lamongan bergerak cepat untuk berburu pemain baru pada bursa transfer paruh musim Liga 1 2019.\r\nTim berjuluk Laskar Joko Tingkir tersebut telah mendatangkan seorang pemain yang berposisi sebagai bek kiri.\r\n\"Iya, pemain yang ikut trial Arighi Fauzan, u… [+577 chars]"
      },
      {
        "source": {
          "id": null,
          "name": "Viva.co.id"
        },
        "author": "Dedy Priatmojo",
        "title": "Jemaah Haji Banyumasan Senam Ngapak di Mekah, 'Ora Ngapak Ora Penak'",
        "description": "Berita Jemaah Haji Banyumasan Senam Ngapak di Mekah, 'Ora Ngapak Ora Penak' terbaru hari ini 2019-07-29 16:33:05 dari sumber yang terpercaya",
        "url": "https://www.viva.co.id/haji/kabar-haji/1170428-jemaah-haji-banyumasan-senam-ngapak-di-mekah-ora-ngapak-ora-penak",
        "urlToImage": "https://thumb.viva.co.id/media/frontend/thumbs3/2019/07/29/5d3ebaaa00434-jemaah-haji-asal-banyumas-menggelar-senam-ngapak-di-depan-hotel_665_374.jpeg",
        "publishedAt": "2019-07-29T09:33:05Z",
        "content": "VIVA  Beragam cara jemaah haji untuk menjaga kebugaran dan kekompakan sesama rombongan jemaah. Seperti yang dilakukan jemaah haji yang berada di halaman depan Hotel Kiswah Towers 1-2 (1001) Sektor 10, Jarwal, Mekah, Senin pagi, 29 Juli 2019.\r\nKegiatan yang be… [+2047 chars]"
      },
      {
        "source": {
          "id": null,
          "name": "Viva.co.id"
        },
        "author": "Amal Nur Ngazis",
        "title": "Telkomsel Beri Kompensasi Listrik Mati, Ini Cara Aktifkannya",
        "description": "Berita Telkomsel Beri Kompensasi Listrik Mati, Ini Cara Aktifkannya terbaru hari ini 2019-08-09 10:17:52 dari sumber yang terpercaya",
        "url": "https://www.viva.co.id/digital/digilife/1173687-telkomsel-beri-kompensasi-listrik-mati-ini-cara-aktifkannya",
        "urlToImage": "https://thumb.viva.co.id/media/frontend/thumbs3/2019/08/04/5d468433e96f0-telkomsel_665_374.jpg",
        "publishedAt": "2019-08-09T03:17:52Z",
        "content": "VIVA  Telkomsel memberikan kompensasi kepada pelanggan atas dampak listrik mati pada Minggu 4 Agustus 2019. Sebagai pengganti gangguan listrik mati tersebut, Telkomsel menawarkan kompensasi berupa paket combo spesial cuma Rp10 mendapatkan paket internet 1 GB,… [+2103 chars]"
      },
      {
        "source": {
          "id": null,
          "name": "Viva.co.id"
        },
        "author": "Dedy Priatmojo",
        "title": "Jemaah Haji Banyumasan Senam Ngapak di Mekah, 'Orang Ngapak Ora Penak'",
        "description": "Berita Jemaah Haji Banyumasan Senam Ngapak di Mekah, 'Orang Ngapak Ora Penak' terbaru hari ini 2019-07-29 16:33:05 dari sumber yang terpercaya",
        "url": "https://www.viva.co.id/haji/kabar-haji/1170428-jemaah-haji-banyumasan-senam-ngapak-di-mekah-orang-ngapak-ora-penak",
        "urlToImage": "https://thumb.viva.co.id/media/frontend/thumbs3/2019/07/29/5d3ebaaa00434-jemaah-haji-asal-banyumas-menggelar-senam-ngapak-di-depan-hotel_665_374.jpeg",
        "publishedAt": "2019-07-29T09:33:05Z",
        "content": "VIVA  Beragam cara jemaah haji untuk menjaga kebugaran dan kekompakan sesama rombongan jemaah. Seperti yang dilakukan jemaah haji yang berada di halaman depan Hotel Kiswah Towers 1-2 (1001) Sektor 10, Jarwal, Mekah, Senin pagi, 29 Juli 2019.\r\nKegiatan yang be… [+2047 chars]"
      },
      {
        "source": {
          "id": null,
          "name": "Detik.com"
        },
        "author": "Agus Tri Haryanto",
        "title": "Telkomsel Beri Kompensasi pada 'Korban' Mati Listrik",
        "description": "Telkomsel memberikan kompensasi kepada pelanggan yang terkena dampak mati listrik yang terjadi secara massal pada akhir pekan lalu. Cara aktifkan paketnya?",
        "url": "https://inet.detik.com/telecommunication/d-4659265/telkomsel-beri-kompensasi-pada-korban-mati-listrik",
        "urlToImage": "https://awsimages.detik.net.id/api/wm/2019/01/03/349a1c52-e38e-4b96-8b1a-278d62106e82_169.jpeg?wid=54&w=650&v=1&t=jpeg",
        "publishedAt": "2019-08-09T08:43:24Z",
        "content": "Jakarta - Telkomsel mulai memberikan kompensasi kepada pelanggan yang terkena dampak mati listrik yang terjadi secara massal pada akhir pekan lalu. Dengan paket seharga Rp 10, pengguna bisa mendapatkan kuota internet 1 GB.Selain itu, pelanggan yang mengaktifk… [+2022 chars]"
      },
      {
        "source": {
          "id": null,
          "name": "Detik.com"
        },
        "author": "Angling Adhitya Purbaya",
        "title": "PSIS Tunjuk 3 Orang Sekaligus sebagai Pengganti Sementara Jafri Sastra",
        "description": "Pelatih PSIS Semarang, Jafri Sastra, diputus kontrak usai kalah kandang. Manajemen menyiapkan tiga orang sebagai pengganti sementara Jafri.",
        "url": "https://sport.detik.com/sepakbola/liga-indonesia/d-4657716/psis-tunjuk-3-orang-sekaligus-sebagai-pengganti-sementara-jafri-sastra",
        "urlToImage": "https://akcdn.detik.net.id/api/wm/2019/08/08/e328c065-f1c4-4049-92da-4752af125c65_169.jpeg?wid=54&w=650&v=1&t=jpeg",
        "publishedAt": "2019-08-08T09:25:41Z",
        "content": "Semarang - Pelatih PSIS Semarang, Jafri Sastra, diputus kontrak usai kalah kandang. Manajemen menyiapkan tiga orang sebagai pengganti sementara Jafri.Jafri dicopot dari jabatannya pada Kamis (8/8/2019), tepat setelah tiga kekalahan beruntun PSIS, dikandaskan … [+1095 chars]"
      },
      {
        "source": {
          "id": null,
          "name": "Detik.com"
        },
        "author": "Angling Adhitya Purbaya",
        "title": "Stadion Jatidiri Semarang Diprediksi Siap Pakai di Akhir 2020",
        "description": "Pembangunan Stadion Jatidiri Semarang belum juga rampung. Sempat telat lelang. Stadion itu diprediksi siap pakai pada akhir 2020.",
        "url": "https://sport.detik.com/sepakbola/liga-indonesia/d-4658870/stadion-jatidiri-semarang-diprediksi-siap-pakai-di-akhir-2020",
        "urlToImage": "https://akcdn.detik.net.id/api/wm/2019/08/09/34b93c1d-0a3d-4d20-ba5a-342778a9d514_169.jpeg?wid=54&w=650&v=1&t=jpeg",
        "publishedAt": "2019-08-09T05:17:09Z",
        "content": "Semarang - Pembangunan Stadion Jatidiri Semarang belum juga rampung. Sempat telat lelang. Stadion itu diprediksi siap pakai pada akhir 2020.Kepala Dinas Kepemudaan Olahraga dan Pariwisata Jateng, Sinoeng N. Rachmadi, mengatakan, tahun ini, dialokasikan dana s… [+1794 chars]"
      },
      {
        "source": {
          "id": null,
          "name": "Detik.com"
        },
        "author": "Arbi Anugrah",
        "title": "Ini Rekor MURI Baru, Makan Es Krim Ubi Jalar Terbanyak",
        "description": "Ribuan anak Pramuka di Banyumas memecahkan rekor MURI makan es krim bahan ubi jalar terbanyak. Es krim tersebut merupakan inovasi dari UMP.",
        "url": "https://food.detik.com/berita-boga/d-4665119/ini-rekor-muri-baru-makan-es-krim-ubi-jalar-terbanyak",
        "urlToImage": "https://awsimages.detik.net.id/api/wm/2019/08/14/ec908fb0-bd20-4985-a71d-e7c991fa4bb3_169.jpeg?wid=54&w=650&v=1&t=jpeg",
        "publishedAt": "2019-08-14T06:30:00Z",
        "content": "Purwokerto - Ribuan anak Pramuka di Banyumas memecahkan rekor MURI makanes krim bahan ubi jalar terbanyak. Es krim tersebut merupakan inovasi dari Universitas Muhammadiyah Purwokerto (UMP).\"Es krim ubi jalar merupakan inovasi dari Fakultas Pertanian UMP, seba… [+2181 chars]"
      }
    ]
  }